tidy coral analysis
…
## See spec(...) for full column specifications.

Wrangle time

benthic<-benthic_raw%>%
  janitor::clean_names() # use package::function on functions that are not immediately clear to you as to their source package (memory aid, and also unmasks the function if it is masked)

benthic<-
  benthic%>%
  select(id_name,point,x,y,id_date)%>%
mutate(date= stringr::str_remove_all(id_date,"#"))

benthic

## # A tibble: 4,925 x 6
##    id_name               point     x     y id_date      date      
##    <chr>                 <int> <int> <int> <chr>        <chr>     
##  1 Pocillopora meandrina     1  1773  1000 #2010-03-12# 2010-03-12
##  2 Turf algae                2  2308   194 #2010-03-12# 2010-03-12
##  3 Coralline algae           3  1700  1782 #2010-03-12# 2010-03-12
##  4 Coralline algae           4  2470   584 #2010-03-12# 2010-03-12
##  5 Coralline algae           5   314  1145 #2010-03-12# 2010-03-12
##  6 Turf algae                6   198  1660 #2010-03-12# 2010-03-12
##  7 Turf algae                7  2557  1050 #2010-03-12# 2010-03-12
##  8 Turf algae                8  1890  1145 #2010-03-12# 2010-03-12
##  9 Coralline algae           9  2334  1411 #2010-03-12# 2010-03-12
## 10 Coralline algae          10  1646  1391 #2010-03-12# 2010-03-12
## # ... with 4,915 more rows
…
